machineName,label,parents,level
advertisement_form,Advertisement Form,,0
autobiographical_genre,Autobiographical Genre,,0
calendar_form,Calendar Form,,0
cartographic_form,Cartographic Form,,0
catalogue_form,Catalogue Form,,0
childrens_literature_genre,Childrens Literature Genre,,0
collection_form,Collection Form,,0
comedic_genre,Comedic Genre,,0
dialogue_or_debate_genre,Dialogue Or Debate Genre,,0
didactic_genre,Didactic Genre,,0
digital_medium,Digital Medium,,0
dramatic_genre,Dramatic Genre,,0
embedded_work,Embedded Work,,0
epistolary_genre,Epistolary Genre,,0
feminist_genre,Feminist Genre,,0
fictional_genre,Fictional Genre,,0
historical_genre,Historical Genre,,0
illustrated_form,Illustrated Form,,0
informational_genre,Informational Genre,,0
intertextual_genre,Intertextual Genre,,0
journal_form,Journal Form,,0
journalistic_genre,Journalistic Genre,,0
lgbtq+genre,LGBTQ+Genre,,0
literary_genre,Literary Genre,,0
moving_medium,Moving Medium,,0
musical_genre,Musical Genre,,0
musical_notation_form,Musical Notation Form,,0
mystery_genre,Mystery Genre,,0
narrative_genre,Narrative Genre,,0
novelistic_genre,Novelistic Genre,,0
opera_genre,Opera Genre,,0
pedagogical_genre,Pedagogical Genre,,0
performance_medium,Performance Medium,,0
philosophical_genre,Philosophical Genre,,0
poetic_genre,Poetic Genre,,0
political_genre,Political Genre,,0
print_medium,Print Medium,,0
proverb_form,Proverb Form,,0
reference_work_genre,Reference Work Genre,,0
religious_genre,Religious Genre,,0
romance_genre,Romance Genre,,0
satirical_genre,Satirical Genre,,0
scholarly_genre,Scholarly Genre,,0
script_form,Script Form,,0
social_science_genre,Social Science Genre,,0
song_genre,Song Genre,,0
sound_recording_medium,Sound Recording Medium,,0
stand-alone_book,Stand-alone Book,,0
stand-alone_work,Stand-alone Work,,0
textual_medium,Textual Medium,,0
thematic_genre,Thematic Genre,,0
abridgement,Abridgement,intertextual_genre,1
à_clef,À clef,novelistic_genre,1
acrostic,Acrostic,poetic_genre,1
adaptation,Adaptation,intertextual_genre,1
adventure_writing,Adventure writing,fictional_genre,1
advertising_copy,Advertising copy,advertisement_form,1
afterpiece,Afterpiece,dramatic_genre,1
afterword,Afterword,embedded_work,1
agitprop,Agitprop,"dramatic_genre,political_genre",1
allegory,Allegory,fictional_genre,1
almanac,Almanac,calendar_form,1
anacreontic,Anacreontic,poetic_genre,1
anagram,Anagram,poetic_genre,1
annotation,Annotation,embedded_work,1
answer,Answer,"dialogue_or_debate_genre,intertextual_genre",1
anthem,Anthem,"thematic_genre,political_genre,song_genre",1
anthology,Anthology,collection_form,1
antiromance,Antiromance,satirical_genre,1
aphorism,Aphorism,proverb_form,1
apology,Apology,poetic_genre,1
art_criticism,Art criticism,scholarly_genre,1
autobiography,Autobiography,autobiographical_genre,1
ballad,Ballad,poetic_genre,1
ballade,Ballade,"poetic_genre,musical_genre",1
ballad_opera,Ballad opera,"dramatic_genre,opera_genre",1
ballet,Ballet,performance_medium,1
bergamasque,Bergamasque,dramatic_genre,1
bestiary,Bestiary,didactic_genre,1
biblical_paraphrase,Biblical paraphrase,"religious_genre,literary_genre",1
bildungsroman,Bildungsroman,novelistic_genre,1
biographical_dictionary,Biographical dictionary,reference_work_genre,1
biography,Biography,informational_genre,1
bisexual_fiction,Bisexual fiction,"lgbtq+genre,fictional_genre",1
black_comedy,Black comedy,comedic_genre,1
bouts_rimes,Bouts rimes,poetic_genre,1
broadside,Broadside,print_medium,1
burletta,Burletta,comedic_genre,1
cabaret,Cabaret,performance_medium,1
captivity_narrative,Captivity narrative,autobiographical_genre,1
catechism,Catechism,"didactic_genre,religious_genre",1
chapbook,Chapbook,print_medium,1
character,Character,fictional_genre,1
charade,Charade,performance_medium,1
children's_literature,Children's literature,childrens_literature_genre,1
clerihew,Clerihew,poetic_genre,1
closet_drama,Closet drama,dramatic_genre,1
colouring_book,Colouring book,illustrated_form,1
comedy,Comedy,comedic_genre,1
comedy_of_humours,Comedy of humours,comedic_genre,1
comedy_of_intrigue,Comedy of intrigue,comedic_genre,1
comedy_of_manners,Comedy of manners,comedic_genre,1
comedy_of_menace,Comedy of menace,comedic_genre,1
comic_book,Comic book,illustrated_form,1
coming_out,Coming out,"lgbtq+genre,thematic_genre",1
commonplace_book,Commonplace book,collection_form,1
companion,Companion,reference_work_genre,1
computer_program,Computer program,digital_medium,1
condition_of_england_novel,Condition of England novel,"political_genre,novelistic_genre,fictional_genre",1
conduct_literature,Conduct literature,didactic_genre,1
cookbook,Cookbook,informational_genre,1
courtship_fiction,Courtship fiction,"fictional_genre,romance_genre",1
criminology,Criminology,social_science_genre,1
dedication,Dedication,embedded_work,1
detective,Detective,mystery_genre,1
devotional,Devotional,"religious_genre,literary_genre",1
dialogue_or_debate,Dialogue or debate,dialogue_or_debate_genre,1
diary,Diary,autobiographical_genre,1
dialogue_of_the_dead,Dialogue of the dead,dialogue_or_debate_genre,1
dictionary,Dictionary,reference_work_genre,1
didactic,Didactic,didactic_genre,1
directory,Directory,reference_work_genre,1
dissertation,Dissertation,scholarly_genre,1
documentary,Documentary,informational_genre,1
domestic,Domestic,"novelistic_genre,thematic_genre",1
drama,Drama,dramatic_genre,1
dramatic_monologue,Dramatic monologue,"dramatic_genre,poetic_genre",1
dream_vision,Dream vision,fictional_genre,1
dystopia,Dystopia,fictional_genre,1
eclogue,Eclogue,poetic_genre,1
editing,Editing,embedded_work,1
elegy,Elegy,poetic_genre,1
encyclopaedia,Encyclopaedia,reference_work_genre,1
epic,Epic,poetic_genre,1
epic_theatre,Epic theatre,dramatic_genre,1
epigram,Epigram,poetic_genre,1
epilogue,Epilogue,embedded_work,1
episodic_literature,Episodic literature,narrative_genre,1
epistle,Epistle,epistolary_genre,1
epistolary,Epistolary,epistolary_genre,1
epitaph,Epitaph,informational_genre,1
epithalamium,Epithalamium,poetic_genre,1
epyllion,Epyllion,poetic_genre,1
erotica_or_pornography,Erotica or pornography,thematic_genre,1
essay,Essay,scholarly_genre,1
eulogy,Eulogy,thematic_genre,1
exhibition_catalogue,Exhibition catalogue,catalogue_form,1
fable,Fable,narrative_genre,1
fabliau,Fabliau,poetic_genre,1
fairy-tale,Fairy-tale,fictional_genre,1
fantasy,Fantasy,fictional_genre,1
farce,Farce,comedic_genre,1
feminist,Feminist,"thematic_genre,feminist_genre,political_genre",1
feminist_theory,Feminist theory,"feminist_genre,philosophical_genre,scholarly_genre",1
fiction,Fiction,fictional_genre,1
film_or_tv_script,Film or TV script,dramatic_genre,1
folksong,Folksong,song_genre,1
gardening_book,Gardening book,thematic_genre,1
genealogy,Genealogy,informational_genre,1
georgic,Georgic,poetic_genre,1
ghost_story,Ghost story,fictional_genre,1
gift_book,Gift book,stand-alone_work,1
gothic,Gothic,thematic_genre,1
government_report,Government report,informational_genre,1
grammar,Grammar,pedagogical_genre,1
graveyard_poetry,Graveyard poetry,poetic_genre,1
guerilla_theatre,Guerilla theatre,dramatic_genre,1
guidebook,Guidebook,thematic_genre,1
hagiography,Hagiography,"religious_genre,literary_genre",1
haiku,Haiku,poetic_genre,1
harlequinade,Harlequinade,thematic_genre,1
heroic,Heroic,poetic_genre,1
historical,Historical,historical_genre,1
history,History,historical_genre,1
hymn,Hymn,"poetic_genre,musical_genre,religious_genre",1
imitation,Imitation,intertextual_genre,1
improvisation,Improvisation,dramatic_genre,1
industrial_novel,Industrial novel,"novelistic_genre,thematic_genre,political_genre",1
introduction,Introduction,embedded_work,1
journalism,Journalism,journalistic_genre,1
juvenilia,Juvenilia,thematic_genre,1
kitchen_sink_drama,Kitchen sink drama,dramatic_genre,1
kunstlerroman,Kunstlerroman,novelistic_genre,1
lais,Lais,poetic_genre,1
lampoon,Lampoon,satirical_genre,1
legal_writing,Legal writing,scholarly_genre,1
legend_or_folk_tale,Legend or folk tale,fictional_genre,1
lesbian,Lesbian,"lgbtq+genre,thematic_genre",1
letter,Letter,epistolary_genre,1
letters_from_the_dead_to_the_living,Letters from the dead to the living,epistolary_genre,1
libretto,Libretto,opera_genre,1
literary_criticism,Literary criticism,scholarly_genre,1
liturgy,Liturgy,religious_genre,1
love,Love,thematic_genre,1
lyric,Lyric,poetic_genre,1
magic_realist,Magic realist,fictional_genre,1
manifesto,Manifesto,political_genre,1
manual,Manual,reference_work_genre,1
map,Map,cartographic_form,1
masque,Masque,dramatic_genre,1
medical_writing,Medical writing,informational_genre,1
melodrama,Melodrama,dramatic_genre,1
mixed_media,Mixed media,digital_medium,1
mock_forms,Mock forms,satirical_genre,1
monologue,Monologue,dramatic_genre,1
morality_or_mystery_play,Morality or mystery play,dramatic_genre,1
multimedia,Multimedia,digital_medium,1
musicology,Musicology,scholarly_genre,1
mystery,Mystery,fictional_genre,1
myth,Myth,narrative_genre,1
narrative_poetry,Narrative poetry,poetic_genre,1
nationalist_fiction,Nationalist fiction,"political_genre,thematic_genre",1
national_tale,National tale,"novelistic_genre,historical_genre",1
notebook,Notebook,stand-alone_work,1
novel,Novel,novelistic_genre,1
novella,Novella,novelistic_genre,1
nursery_rhyme,Nursery rhyme,"poetic_genre,childrens_literature_genre",1
obituary,Obituary,informational_genre,1
occasional_poetry,Occasional poetry,poetic_genre,1
ode,Ode,poetic_genre,1
one-act_play,One-act play,dramatic_genre,1
opera,Opera,opera_genre,1
oratorio,Oratorio,"religious_genre,narrative_genre,song_genre",1
oriental,Oriental,"thematic_genre,informational_genre",1
pageant,Pageant,dramatic_genre,1
panegyric,Panegyric,dramatic_genre,1
pantomime,Pantomime,dramatic_genre,1
parable,Parable,didactic_genre,1
paratexts,Paratexts,embedded_work,1
parliamentary_report,Parliamentary report,informational_genre,1
parody,Parody,intertextual_genre,1
pastoral,Pastoral,thematic_genre,1
pedagogy,Pedagogy,pedagogical_genre,1
performance_poetry,Performance poetry,poetic_genre,1
periodical,Periodical,journal_form,1
petition,Petition,political_genre,1
philosophical,Philosophical,philosophical_genre,1
philosophy,Philosophy,philosophical_genre,1
picaresque,Picaresque,fictional_genre,1
pindaric,Pindaric,poetic_genre,1
poetry,Poetry,poetic_genre,1
polemic,Polemic,dialogue_or_debate_genre,1
political_writing,Political writing,political_genre,1
popular,Popular,thematic_genre,1
prayer,Prayer,religious_genre,1
prefatory_piece,Prefatory piece,embedded_work,1
program_notes,Program notes,informational_genre,1
proletarian_writing,Proletarian writing,political_genre,1
prologue,Prologue,embedded_work,1
propaganda,Propaganda,political_genre,1
prophecy,Prophecy,religious_genre,1
psalm,Psalm,"religious_genre,song_genre,poetic_genre",1
psychoanalytical,Psychoanalytical,scholarly_genre,1
quiz,Quiz,pedagogical_genre,1
radio_drama,Radio drama,dramatic_genre,1
realist,Realist,fictional_genre,1
regional,Regional,thematic_genre,1
religious,Religious,religious_genre,1
review,Review,intertextual_genre,1
revue,Revue,dramatic_genre,1
riddle,Riddle,comedic_genre,1
romance,Romance,romance_genre,1
sage_writing,Sage writing,didactic_genre,1
satire,Satire,"intertextual_genre,satirical_genre",1
scholarship,Scholarship,informational_genre,1
school_fiction,School fiction,fictional_genre,1
science_fiction,Science fiction,fictional_genre,1
scientific_writing,Scientific writing,scholarly_genre,1
scrapbook,Scrapbook,stand-alone_book,1
sensation_novel,Sensation novel,"mystery_genre,novelistic_genre",1
sensibility,Sensibility,fictional_genre,1
sentimental,Sentimental,"thematic_genre,novelistic_genre",1
sequel,Sequel,intertextual_genre,1
sermon,Sermon,religious_genre,1
sexual_awakening_fiction,Sexual awakening fiction,autobiographical_genre,1
short_story,Short story,fictional_genre,1
silver_fork_novel,Silver fork novel,novelistic_genre,1
sketch,Sketch,fictional_genre,1
sketchbook,Sketchbook,stand-alone_book,1
slave_narrative,Slave narrative,autobiographical_genre,1
social_science,Social science,social_science_genre,1
song,Song,"poetic_genre,song_genre",1
sonnet,Sonnet,poetic_genre,1
speech,Speech,performance_medium,1
stage_review,Stage review,scholarly_genre,1
testimony,Testimony,narrative_genre,1
textbook,Textbook,pedagogical_genre,1
theatre_of_cruelty,Theatre of cruelty,dramatic_genre,1
theatre_of_the_absurd,Theatre of the absurd,dramatic_genre,1
theology,Theology,religious_genre,1
thesaurus,Thesaurus,reference_work_genre,1
thriller,Thriller,fictional_genre,1
topographical_poetry,Topographical poetry,poetic_genre,1
tract_pamphlet,Tract pamphlet,"political_genre,religious_genre",1
tragedy,Tragedy,dramatic_genre,1
tragicomedy,Tragicomedy,dramatic_genre,1
translation,Translation,intertextual_genre,1
travel_writing,Travel writing,"narrative_genre,thematic_genre",1
treatise,Treatise,scholarly_genre,1
utopia,Utopia,fictional_genre,1
verse_novel,Verse novel,"novelistic_genre,poetic_genre",1
vignette,Vignette,fictional_genre,1
villanelle,Villanelle,poetic_genre,1
young_adult_writing,Young adult writing,childrens_literature_genre,1
memoir,Memoir,autobiographical_genre,1
history_and_criticism,History and Criticism,scholarly_genre,1
detective_novel,Detective Novel,novelistic_genre,1
book,Book,informational_genre,1
graphicnovel,GraphicNovel,stand-alone_book,1
graphic_novel,Graphic Novel,"illustrated_form,novelistic_genre",1
interview,Interview,informational_genre,1
journal,Journal,journal_form,1
lecture,Lecture,performance_medium,1
manuscript,Manuscript,textual_medium,1
microfilm,Microfilm,print_medium,1
music,Music,musical_genre,1
musical_score,Musical Score,musical_notation_form,1
musical_verse,Musical Verse,"musical_genre,poetic_genre",1
newspaper,Newspaper,journal_form,1
operetta,Operetta,opera_genre,1
paper,Paper,scholarly_genre,1
perfornamce,Perfornamce,thematic_genre,1
photocopy,Photocopy,print_medium,1
picture_book,Picture Book,illustrated_form,1
radio_broadcast,Radio Broadcast,sound_recording_medium,1
screenplay,Screenplay,dramatic_genre,1
sound,Sound,sound_recording_medium,1
television,Television,moving_medium,1
television_broadcast,Television Broadcast,moving_medium,1
text,Text,textual_medium,1
typescript,Typescript,textual_medium,1
unpublished_interview,Unpublished Interview,informational_genre,1
unpublished_manuscript,Unpublished Manuscript,textual_medium,1
unpublished_palyscript,Unpublished Palyscript,script_form,1
unpublished_typescript,Unpublished Typescript,textual_medium,1
video,Video,moving_medium,1
video_recording,Video Recording,moving_medium,1
voice_recording,Voice Recording,sound_recording_medium,1
website,Website,digital_medium,1
photocopy_of_corrected_typescript,Photocopy of Corrected Typescript,textual_medium,1
